…
### To be, or not to be

``` r
# Load the data
load("./data/shakespeare.rda")

# The data set shakespeare in available in the workspace
shakespeare
```

    ## # A tibble: 25,888 x 3
    ##                              title    type
    ##                              <chr>   <chr>
    ##  1 The Tragedy of Romeo and Juliet Tragedy
    ##  2 The Tragedy of Romeo and Juliet Tragedy
    ##  3 The Tragedy of Romeo and Juliet Tragedy
    ##  4 The Tragedy of Romeo and Juliet Tragedy
    ##  5 The Tragedy of Romeo and Juliet Tragedy
    ##  6 The Tragedy of Romeo and Juliet Tragedy
    ##  7 The Tragedy of Romeo and Juliet Tragedy
    ##  8 The Tragedy of Romeo and Juliet Tragedy
    ##  9 The Tragedy of Romeo and Juliet Tragedy
    ## 10 The Tragedy of Romeo and Juliet Tragedy
    ## # ... with 25,878 more rows, and 1 more variables: text <chr>
…
# Pipe the tidy Shakespeare data frame to the next line
tidy_shakespeare %>% 
  # Use count to find out how many times each word is used
  count(word, sort = TRUE)
```

    ## # A tibble: 10,736 x 2
    ##     word     n
    ##    <chr> <int>
    ##  1   the  4651
    ##  2   and  4170
    ##  3     i  3296
    ##  4    to  3047
    ##  5    of  2645
    ##  6     a  2511
    ##  7   you  2287
    ##  8    my  1913
    ##  9    in  1836
    ## 10  that  1721
    ## # ... with 10,726 more rows
…
### Word contributions by play

``` r
tidy_shakespeare %>%
  # Count by title and word
  count(title, word, sort = TRUE) %>%
  # Implement sentiment analysis using the "afinn" lexicon
  inner_join(get_sentiments("afinn")) %>%
  # Filter to only examine the scores for Macbeth that are negative
  filter(title == "The Tragedy of Macbeth", score < 0)
```

    ## Joining, by = "word"

    ## # A tibble: 237 x 4
    ##                     title    word     n score
    ##                     <chr>   <chr> <int> <int>
    ##  1 The Tragedy of Macbeth      no    73    -1
    ##  2 The Tragedy of Macbeth    fear    35    -2
    ##  3 The Tragedy of Macbeth   death    20    -2
    ##  4 The Tragedy of Macbeth  bloody    16    -3
    ##  5 The Tragedy of Macbeth    poor    16    -2
    ##  6 The Tragedy of Macbeth strange    16    -1
    ##  7 The Tragedy of Macbeth    dead    14    -3
    ##  8 The Tragedy of Macbeth   leave    14    -1
    ##  9 The Tragedy of Macbeth   fight    13    -1
    ## 10 The Tragedy of Macbeth charges    11    -2
    ## # ... with 227 more rows
…
    ## Joining, by = "word"

``` r
sentiment_contributions
```

    ## # A tibble: 2,366 x 5
    ##                              title  word     n score contribution
    ##                              <chr> <chr> <int> <int>        <dbl>
    ##  1       Hamlet, Prince of Denmark    no   143    -1  -0.06520748
    ##  2 The Tragedy of Romeo and Juliet  love   140     3   0.21319797
    ##  3          Much Ado about Nothing    no   132    -1  -0.07683353
    ##  4          Much Ado about Nothing  hero   114     2   0.13271246
    ##  5       A Midsummer Night's Dream  love   110     3   0.26982829
    ##  6       Hamlet, Prince of Denmark  good   109     3   0.14911081
    ##  7 The Tragedy of Romeo and Juliet    no   102    -1  -0.05177665
    ##  8          Much Ado about Nothing  good    93     3   0.16239814
    ##  9          The Merchant of Venice    no    92    -1  -0.06301370
    ## 10          Much Ado about Nothing  love    91     3   0.15890570
    ## # ... with 2,356 more rows

### Alas, poor Yorick!

``` r
sentiment_contributions %>%
  # Filter for Hamlet
  filter(title == "Hamlet, Prince of Denmark") %>%
  # Arrange to see the most negative words
  arrange(contribution)
```

    ## # A tibble: 493 x 5
    ##                        title    word     n score contribution
    ##                        <chr>   <chr> <int> <int>        <dbl>
    ##  1 Hamlet, Prince of Denmark      no   143    -1  -0.06520748
    ##  2 Hamlet, Prince of Denmark    dead    33    -3  -0.04514364
    ##  3 Hamlet, Prince of Denmark   death    38    -2  -0.03465572
    ##  4 Hamlet, Prince of Denmark madness    22    -3  -0.03009576
    ##  5 Hamlet, Prince of Denmark     mad    21    -3  -0.02872777
    ##  6 Hamlet, Prince of Denmark    fear    21    -2  -0.01915185
    ##  7 Hamlet, Prince of Denmark    poor    20    -2  -0.01823985
    ##  8 Hamlet, Prince of Denmark    hell    10    -4  -0.01823985
    ##  9 Hamlet, Prince of Denmark   grave    17    -2  -0.01550388
    ## 10 Hamlet, Prince of Denmark   ghost    32    -1  -0.01459188
    ## # ... with 483 more rows

``` r
sentiment_contributions %>%
  # Filter for The Merchant of Venice
  filter(title == "The Merchant of Venice") %>%
  # Arrange to see the most positive words
  arrange(desc(contribution))
```

    ## # A tibble: 344 x 5
    ##                     title    word     n score contribution
    ##                     <chr>   <chr> <int> <int>        <dbl>
    ##  1 The Merchant of Venice    good    63     3   0.12945205
    ##  2 The Merchant of Venice    love    60     3   0.12328767
    ##  3 The Merchant of Venice    fair    35     2   0.04794521
    ##  4 The Merchant of Venice    like    34     2   0.04657534
    ##  5 The Merchant of Venice    true    24     2   0.03287671
    ##  6 The Merchant of Venice   sweet    23     2   0.03150685
    ##  7 The Merchant of Venice    pray    42     1   0.02876712
    ##  8 The Merchant of Venice  better    21     2   0.02876712
    ##  9 The Merchant of Venice justice    17     2   0.02328767
    ## 10 The Merchant of Venice welcome    17     2   0.02328767
    ## # ... with 334 more rows

### Sentiment changes through a play

``` r
tidy_shakespeare %>%
  # Implement sentiment analysis using "bing" lexicon
  inner_join(get_sentiments("bing")) %>%
  # Count using four arguments
  count(title, type, index = linenumber %/% 70, sentiment)
```

    ## Joining, by = "word"

    ## # A tibble: 744 x 5
    ##                        title   type index sentiment     n
    ##                        <chr>  <chr> <dbl>     <chr> <int>
    ##  1 A Midsummer Night's Dream Comedy     0  negative     4
    ##  2 A Midsummer Night's Dream Comedy     0  positive    11
    ##  3 A Midsummer Night's Dream Comedy     1  negative     7
    ##  4 A Midsummer Night's Dream Comedy     1  positive    19
    ##  5 A Midsummer Night's Dream Comedy     2  negative    20
    ##  6 A Midsummer Night's Dream Comedy     2  positive    23
    ##  7 A Midsummer Night's Dream Comedy     3  negative    12
    ##  8 A Midsummer Night's Dream Comedy     3  positive    18
    ##  9 A Midsummer Night's Dream Comedy     4  negative     9
    ## 10 A Midsummer Night's Dream Comedy     4  positive    27
    ## # ... with 734 more rows
### Calculating net sentiment

``` r
tidy_shakespeare %>%
  inner_join(get_sentiments("bing")) %>%
  count(title, type, index = linenumber %/% 70, sentiment) %>%
  # Spread sentiment and n across multiple columns
  spread(sentiment, n, fill = 0) %>%
  # Use mutate to find net sentiment
  mutate(sentiment = positive - negative)
```

    ## Joining, by = "word"

    ## # A tibble: 373 x 6
    ##                        title   type index negative positive sentiment
    ##                        <chr>  <chr> <dbl>    <dbl>    <dbl>     <dbl>
    ##  1 A Midsummer Night's Dream Comedy     0        4       11         7
    ##  2 A Midsummer Night's Dream Comedy     1        7       19        12
    ##  3 A Midsummer Night's Dream Comedy     2       20       23         3
    ##  4 A Midsummer Night's Dream Comedy     3       12       18         6
    ##  5 A Midsummer Night's Dream Comedy     4        9       27        18
    ##  6 A Midsummer Night's Dream Comedy     5       11       21        10
    ##  7 A Midsummer Night's Dream Comedy     6       12       16         4
    ##  8 A Midsummer Night's Dream Comedy     7        9        6        -3
    ##  9 A Midsummer Night's Dream Comedy     8        6       12         6
    ## 10 A Midsummer Night's Dream Comedy     9       19       12        -7
    ## # ... with 363 more rows
…
