…
### Sentiment lexicons

``` r
# Choose the bing lexicon
get_sentiments("bing") 
```

    ## # A tibble: 6,788 x 2
    ##           word sentiment
    ##          <chr>     <chr>
    ##  1     2-faced  negative
    ##  2     2-faces  negative
    ##  3          a+  positive
    ##  4    abnormal  negative
    ##  5     abolish  negative
    ##  6  abominable  negative
    ##  7  abominably  negative
    ##  8   abominate  negative
    ##  9 abomination  negative
    ## 10       abort  negative
    ## # ... with 6,778 more rows
…
